<?xml version="1.0" encoding="utf-8"?>
<!-- Generator: Adobe Illustrator 16.0.0, SVG Export Plug-In . SVG Version: 6.00 Build 0)  -->
<!DOCTYPE svg PUBLIC "-//W3C//DTD SVG 1.1//EN" "http://www.w3.org/Graphics/SVG/1.1/DTD/svg11.dtd">
<svg version="1.1" id="Vrstva_1" xmlns="http://www.w3.org/2000/svg" xmlns:xlink="http://www.w3.org/1999/xlink" x="0px" y="0px"
	 width="32px" height="32px" viewBox="0 0 32 32" enable-background="new 0 0 32 32" xml:space="preserve">
<g>
	<path fill="#36495D" d="M28.221,26.563H3.78c-1.535,0-2.78-1.245-2.78-2.78V8.217c0-1.535,1.245-2.78,2.78-2.78h24.44
		c1.535,0,2.779,1.245,2.779,2.78v15.566C31,25.318,29.756,26.563,28.221,26.563"/>
	<rect x="13.48" y="11.472" fill="#F16522" width="5.04" height="9.057"/>
	<path fill="#E41B24" d="M13.801,16c0-1.837,0.86-3.474,2.199-4.528c-0.979-0.771-2.216-1.232-3.56-1.232
		c-3.181,0-5.76,2.58-5.76,5.761s2.579,5.761,5.76,5.761c1.344,0,2.58-0.461,3.56-1.232C14.661,19.474,13.801,17.837,13.801,16"/>
	<path fill="#F89E1C" d="M25.32,16c0,3.181-2.579,5.76-5.76,5.76c-1.344,0-2.581-0.46-3.56-1.231C17.34,19.474,18.2,17.837,18.2,16
		c0-1.838-0.86-3.474-2.199-4.529c0.979-0.771,2.216-1.231,3.56-1.231C22.741,10.239,25.32,12.818,25.32,16 M24.771,19.569v-0.186
		h0.074v-0.038h-0.19v0.038h0.075v0.186H24.771z M25.14,19.569v-0.224h-0.059l-0.066,0.153l-0.067-0.153h-0.059v0.224h0.041V19.4
		l0.063,0.146h0.042l0.063-0.146v0.169H25.14z"/>
</g>
</svg>
