<?xml version="1.0" encoding="UTF-8"?>
<svg width="327px" height="66px" viewBox="0 0 327 66" version="1.1" xmlns="http://www.w3.org/2000/svg" xmlns:xlink="http://www.w3.org/1999/xlink">
    <!-- Generator: sketchtool 53.2 (72643) - https://sketchapp.com -->
    <title>8D806511-015C-4135-8198-58E635284505</title>
    <desc>Created with sketchtool.</desc>
    <defs>
        <polygon id="path-1" points="17.5387657 0.185824882 33.786564 0.185824882 50.9305897 39.9523496 36.6909683 39.9523496 34.2905694 33.4915118 16.868066 33.4915118 14.4676671 39.9523496 0.228045646 39.9523496"></polygon>
        <radialGradient cx="49.9991537%" cy="49.998847%" fx="49.9991537%" fy="49.998847%" r="57.3450716%" gradientTransform="translate(0.499992,0.499988),scale(0.784310,1.000000),translate(-0.499992,-0.499988)" id="radialGradient-3">
            <stop stop-color="#18AA4B" offset="0%"></stop>
            <stop stop-color="#D7DF22" offset="100%"></stop>
        </radialGradient>
        <polygon id="path-4" points="0 0.209473022 12.1561379 0.209473022 12.1561379 14.6369168 0 14.6369168"></polygon>
        <polygon id="path-6" points="0 65.7471264 326.628793 65.7471264 326.628793 0.15876741 0 0.15876741"></polygon>
    </defs>
    <g id="ZDRAVPO" stroke="none" stroke-width="1" fill="none" fill-rule="evenodd">
        <g id="Zdravpo---Homepage" transform="translate(-163.000000, -48.000000)">
            <g id="Menu">
                <g id="Logo_zdravpo" transform="translate(163.000000, 48.000000)">
                    <g id="Group-34">
                        <polygon id="Fill-1" fill="#17A94A" points="1.85690989 1.51724138 1.85690989 10.4124079 25.264564 10.4124079 0.126352396 33.6023316 0.126352396 41.2183908 42.6957123 41.2183908 42.6957123 32.3212714 18.1147324 32.3212714 43.0861669 9.30124441 43.0861669 1.51724138"></polygon>
                        <g id="Group-33" transform="translate(0.126352, 0.000000)">
                            <path d="M58.9615637,32.2382057 L70.0732143,32.2382057 C77.6666332,32.2382057 79.7336434,26.6673714 79.7336434,21.209988 C79.7336434,13.8024214 76.1036283,10.2932652 69.0122537,10.2932652 L58.9615637,10.2932652 L58.9615637,32.2382057 Z M45.6711196,1.38345118 L74.4837512,1.38345118 C86.825018,1.38345118 93.4692595,8.01055328 93.4692595,21.2667135 C93.4692595,36.9170807 84.1990914,41.1499759 72.7520909,41.1499759 L45.6711196,41.1499759 L45.6711196,1.38345118 Z" id="Fill-2" fill="#17A94A"></path>
                            <path d="M109.937094,18.9834147 L122.723533,18.9834147 C125.963287,18.9834147 127.692986,17.3129469 127.692986,14.5822991 C127.692986,11.9651024 125.963287,10.2946345 122.723533,10.2946345 L109.937094,10.2946345 L109.937094,18.9834147 Z M96.6466503,1.38286437 L128.587253,1.38286437 C138.357504,1.38286437 141.930647,5.83874943 141.930647,12.4678076 C141.930647,17.7569705 139.139987,20.6538826 135.564883,21.5458421 L135.564883,21.6553809 C138.079026,22.4925709 140.034253,24.4955675 140.369603,28.7851882 C140.98343,36.6367785 141.205036,39.1444364 142.881785,41.149389 L128.306814,41.149389 C127.581203,39.4221957 127.526292,37.0847143 127.526292,35.2440699 C127.526292,29.0081781 125.459282,27.8951849 122.109706,27.8951849 L109.937094,27.8951849 L109.937094,41.149389 L96.6466503,41.149389 L96.6466503,1.38286437 Z" id="Fill-4" fill="#17A94A"></path>
                            <g id="Group-8" transform="translate(141.705347, 1.197431)">
                                <mask id="mask-2" fill="white">
                                    <use xlink:href="#path-1"></use>
                                </mask>
                                <g id="Clip-7"></g>
                                <polygon id="Fill-6" fill="url(#radialGradient-3)" mask="url(#mask-2)" points="17.5387657 0.185824882 33.786564 0.185824882 50.9305897 39.9523496 36.6909683 39.9523496 34.2905694 33.4915118 16.868066 33.4915118 14.4676671 39.9523496 0.228045646 39.9523496"></polygon>
                            </g>
                            <polygon id="Fill-9" fill="#17A94A" points="181.176777 1.38266876 195.751748 1.38266876 205.914222 29.7317215 206.026005 29.7317215 216.188478 1.38266876 230.761488 1.38266876 213.005596 41.1491934 198.93463 41.1491934"></polygon>
                            <path d="M243.210224,19.6519931 L255.047485,19.6519931 C258.732411,19.6519931 260.352288,18.1458335 260.352288,14.6386334 C260.352288,11.1314333 258.732411,9.62722975 255.047485,9.62722975 L243.210224,9.62722975 L243.210224,19.6519931 Z M229.91978,1.38247316 L259.403111,1.38247316 C270.234323,1.38247316 274.087905,7.12152792 274.087905,14.6386334 C274.087905,21.2109661 270.738328,27.8947936 260.016939,27.8947936 L243.210224,27.8947936 L243.210224,41.1489978 L229.91978,41.1489978 L229.91978,1.38247316 Z" id="Fill-11" fill="#17A94A"></path>
                            <path d="M300.662713,33.4626939 C307.81096,33.4626939 312.554886,29.621009 312.554886,21.2667135 C312.554886,12.9671875 307.81096,9.06877708 300.662713,9.06877708 C293.571339,9.06877708 288.770541,12.9671875 288.770541,21.2667135 C288.770541,29.621009 293.571339,33.4626939 300.662713,33.4626939 M300.662713,0.158963016 C314.733679,0.158963016 326.627813,4.78111244 326.627813,21.2667135 C326.627813,37.7503586 314.733679,42.374464 300.662713,42.374464 C286.589786,42.374464 274.697614,37.7503586 274.697614,21.2667135 C274.697614,4.78111244 286.589786,0.158963016 300.662713,0.158963016" id="Fill-13" fill="#17A94A"></path>
                            <g id="Group-17" transform="translate(0.000000, 51.110210)">
                                <mask id="mask-5" fill="white">
                                    <use xlink:href="#path-4"></use>
                                </mask>
                                <g id="Clip-16"></g>
                                <path d="M1.49946489,7.20040068 L7.29258453,7.20040068 C9.80476674,7.20040068 10.5342997,6.04828641 10.5342997,4.37195037 C10.5342997,2.20855754 9.3184114,1.58457715 7.59655661,1.58457715 L1.49946489,1.58457715 L1.49946489,7.20040068 Z M-0.000784444095,0.209473022 L7.79855097,0.209473022 C10.0283333,0.209473022 12.1561379,1.32051021 12.1561379,4.37195037 C12.1561379,7.098686 10.3519165,8.5755048 7.13177349,8.5755048 L1.49946489,8.5755048 L1.49946489,14.637308 L-0.000784444095,14.637308 L-0.000784444095,0.209473022 Z" id="Fill-15" fill="#D0D2D3" mask="url(#mask-5)"></path>
                            </g>
                            <path d="M44.5980001,52.4520408 L41.375896,59.6248812 L47.7789209,59.6248812 L44.5980001,52.4520408 Z M48.3868651,60.9999853 L40.7699129,60.9999853 L38.8048805,65.3834965 L37.1850034,65.3834965 L43.7468783,50.9556615 L45.4903053,50.9556615 L52.0541412,65.3834965 L50.3107142,65.3834965 L48.3868651,60.9999853 Z" id="Fill-18" fill="#D0D2D3"></path>
                            <path d="M79.8079694,57.6651133 L86.1482388,57.6651133 C87.7896881,57.6651133 89.2683652,57.0587374 89.2683652,54.8562235 C89.2683652,52.7339078 87.6680993,52.3309612 86.2913999,52.3309612 L79.8079694,52.3309612 L79.8079694,57.6651133 Z M78.3077201,50.9558571 L86.1894221,50.9558571 C88.6408099,50.9558571 90.8882423,51.8262999 90.8882423,54.8562235 C90.8882423,56.3936799 89.9371038,57.9291803 88.0524769,58.3536434 L88.0524769,58.3927644 C90.099876,58.7155129 90.5254369,60.0299794 90.6274146,62.3928895 C90.6666368,63.3024534 90.7882256,65.0609436 91.1314199,65.3836921 L89.5115429,65.3836921 C89.2487541,65.0805041 89.1487375,64.010544 89.1271653,62.4339666 C89.085982,59.8891437 88.1132713,59.0382614 85.6226613,59.0382614 L79.8079694,59.0382614 L79.8079694,65.3836921 L78.3077201,65.3836921 L78.3077201,50.9558571 Z" id="Fill-20" fill="#D0D2D3"></path>
                            <path d="M119.374937,64.0107396 L124.844474,64.0107396 C127.437062,64.0107396 129.686455,62.5945584 129.686455,58.1719262 C129.686455,54.3517579 128.186206,52.3311568 124.844474,52.3311568 L119.374937,52.3311568 L119.374937,64.0107396 Z M117.874688,50.9560527 L124.905268,50.9560527 C129.119694,50.9560527 131.306332,53.6436673 131.306332,58.1719262 C131.306332,62.2326889 129.178527,65.3838877 125.128835,65.3838877 L117.874688,65.3838877 L117.874688,50.9560527 Z" id="Fill-22" fill="#D0D2D3"></path>
                            <path d="M171.4381,59.8064028 C171.4381,62.4353358 170.708567,65.7469308 164.976241,65.7469308 C159.241955,65.7469308 158.512422,62.4353358 158.512422,59.8064028 L158.512422,50.9572263 L160.012671,50.9572263 L160.012671,59.8064028 C160.012671,63.5874501 162.464059,64.3737828 164.976241,64.3737828 C167.486463,64.3737828 169.93785,63.5874501 169.93785,59.8064028 L169.93785,50.9572263 L171.4381,50.9572263 L171.4381,59.8064028 Z" id="Fill-24" fill="#D0D2D3"></path>
                            <path d="M200.489006,64.0107396 L206.790053,64.0107396 C208.733514,64.0107396 210.19258,63.2420114 210.19258,61.2624874 C210.19258,59.1812487 208.896286,58.5944333 207.152859,58.5944333 L200.489006,58.5944333 L200.489006,64.0107396 Z M200.489006,57.2193292 L206.425287,57.2193292 C208.451114,57.2193292 209.747408,56.5738323 209.747408,54.6549458 C209.747408,52.8964556 208.572703,52.3311568 206.931253,52.3311568 L200.489006,52.3311568 L200.489006,57.2193292 Z M198.988757,50.9560527 L207.215614,50.9560527 C210.05138,50.9560527 211.245696,52.5541467 211.245696,54.5943082 C211.245696,55.9870168 210.476941,57.2819229 208.755086,57.6868255 L208.755086,57.7259465 C210.659324,58.009574 211.812457,59.4042386 211.812457,61.2624874 C211.812457,64.2728505 209.263013,65.3838877 207.033231,65.3838877 L198.988757,65.3838877 L198.988757,50.9560527 Z" id="Fill-26" fill="#D0D2D3"></path>
                            <mask id="mask-7" fill="white">
                                <use xlink:href="#path-6"></use>
                            </mask>
                            <g id="Clip-29"></g>
                            <polygon id="Fill-28" fill="#D0D2D3" mask="url(#mask-7)" points="238.963243 65.3833009 240.461532 65.3833009 240.461532 50.9554659 238.963243 50.9554659"></polygon>
                            <path d="M282.442038,59.8885569 C282.116494,63.1199538 279.4435,65.7469308 275.29183,65.7469308 C270.591049,65.7469308 267.592511,62.7972053 267.592511,58.1711438 C267.592511,54.8751972 269.637949,50.5934007 275.29183,50.5934007 C278.451179,50.5934007 281.875277,52.0271864 282.320449,55.8277943 L280.8202,55.8277943 C280.375028,53.0795421 277.904029,51.9665488 275.29183,51.9665488 C271.702998,51.9665488 269.212388,53.9675894 269.212388,58.1711438 C269.212388,61.3849362 270.89306,64.3737828 275.29183,64.3737828 C278.733579,64.3737828 280.435822,62.6348531 280.941789,59.8885569 L282.442038,59.8885569 Z" id="Fill-30" fill="#D0D2D3" mask="url(#mask-7)"></path>
                            <polygon id="Fill-31" fill="#D0D2D3" mask="url(#mask-7)" points="309.64852 50.9564439 321.154354 50.9564439 321.154354 52.331548 311.14877 52.331548 311.14877 57.2197204 320.791549 57.2197204 320.791549 58.5948245 311.14877 58.5948245 311.14877 64.0111308 321.317126 64.0111308 321.317126 65.3842789 309.64852 65.3842789"></polygon>
                            <polygon id="Fill-32" fill="#FEFEFE" mask="url(#mask-7)" points="164.878774 26.4236474 169.854111 26.4236474 169.848228 21.461145 174.829448 21.461145 174.829448 16.4966866 169.848228 16.4966866 169.854111 11.5341842 164.878774 11.5341842 164.880735 16.4966866 159.903438 16.4966866 159.903438 21.461145 164.880735 21.461145"></polygon>
                        </g>
                    </g>
                </g>
            </g>
        </g>
    </g>
</svg>