<?xml version="1.0" encoding="UTF-8"?>
<svg width="1387px" height="1080px" viewBox="0 0 1387 1080" version="1.1" xmlns="http://www.w3.org/2000/svg" xmlns:xlink="http://www.w3.org/1999/xlink">
    <!-- Generator: sketchtool 56.3 (101010) - https://sketch.com -->
    <title>5D36868B-4804-4B96-98F0-87DD9E38501B</title>
    <desc>Created with sketchtool.</desc>
    <defs>
        <linearGradient x1="100%" y1="80.3235189%" x2="0%" y2="44.3043988%" id="linearGradient-1">
            <stop stop-color="#DEDEDE" offset="0%"></stop>
            <stop stop-color="#F8F8F8" offset="100%"></stop>
        </linearGradient>
    </defs>
    <g id="Page-1" stroke="none" stroke-width="1" fill="none" fill-rule="evenodd">
        <g id="Apple-TV" transform="translate(-533.000000, 0.000000)" fill="url(#linearGradient-1)">
            <path d="M536,-9.09494702e-13 C536,-9.09494702e-13 997.333333,-9.09494702e-13 1920,-9.09494702e-13 L1920,1080 C997.333333,1080 536,1080 536,1080 C662.338674,693.200239 511.154157,135.752839 536,-9.09494702e-13 Z" id="Rectangle"></path>
        </g>
    </g>
</svg>